…
``` r
library(p8105.datasets)
data("instacart")
```

#### Next, we will group the data and count the number of aisles. We will then arrange the dataset to see which aisles have the most items ordered from them.

``` r
instacart %>% 
  group_by(aisle) %>% 
  count(aisle) %>% 
  arrange(desc(n))
```

    ## # A tibble: 134 x 2
    ## # Groups:   aisle [134]
    ##    aisle                              n
    ##    <chr>                          <int>
    ##  1 fresh vegetables              150609
    ##  2 fresh fruits                  150473
    ##  3 packaged vegetables fruits     78493
    ##  4 yogurt                         55240
    ##  5 packaged cheese                41699
    ##  6 water seltzer sparkling water  36617
    ##  7 milk                           32644
    ##  8 chips pretzels                 31269
    ##  9 soy lactosefree                26240
    ## 10 bread                          23635
    ## # … with 124 more rows
…
#### In 2002, 36 states were observed at 7 or more locations.

``` r
brfss %>% 
 filter(Year == "2002") %>% 
  group_by(Year, Locationabbr) %>% 
  summarize(n=n()) %>% 
  filter(n >= 7)
```

    ## # A tibble: 36 x 3
    ## # Groups:   Year [1]
    ##     Year Locationabbr     n
    ##    <int> <chr>        <int>
    ##  1  2002 AZ              10
    ##  2  2002 CO              20
    ##  3  2002 CT              35
    ##  4  2002 DE              15
    ##  5  2002 FL              35
    ##  6  2002 GA              15
    ##  7  2002 HI              20
    ##  8  2002 ID              10
    ##  9  2002 IL              15
    ## 10  2002 IN              10
    ## # … with 26 more rows

#### In 2010, 45 states were observed at 7 or more locations.

``` r
brfss %>% 
 filter(Year == "2010") %>% 
  group_by(Year, Locationabbr) %>% 
  summarize(n=n()) %>% 
  filter(n >= 7)
```

    ## # A tibble: 45 x 3
    ## # Groups:   Year [1]
    ##     Year Locationabbr     n
    ##    <int> <chr>        <int>
    ##  1  2010 AL              15
    ##  2  2010 AR              15
    ##  3  2010 AZ              15
    ##  4  2010 CA              60
    ##  5  2010 CO              35
    ##  6  2010 CT              25
    ##  7  2010 DE              15
    ##  8  2010 FL             205
    ##  9  2010 GA              20
    ## 10  2010 HI              20
    ## # … with 35 more rows
…
